Plot the functions for the nearest and cumulative zone of influence in 1 dimension — plot_zoi1d • oneimpact
…
#> 
#> $zoi_df
#> # A tibble: 1,201 × 2
#>        x     y
#>    <dbl> <dbl>
#>  1  0    1.00 
#>  2  0.01 1.00 
#>  3  0.02 1.00 
#>  4  0.03 1.00 
#>  5  0.04 1.00 
#>  6  0.05 1.00 
#>  7  0.06 1.00 
#>  8  0.07 1.00 
#>  9  0.08 0.999
#> 10  0.09 0.999
#> # ℹ 1,191 more rows
…
